^C:\USERS\OMER\DOCUMENTS\MAGSHIMIM\C++\LESSON 6\סדנת דיבאגגינג\DEBUGWORKSHOP\MYPOINTEXACTLY\MAIN.CPP
/c /ZI /JMC /nologo /W3 /WX- /diagnostics:column /sdl /Od /Oy- /D _MBCS /Gm- /EHsc /RTC1 /MDd /GS /fp:precise /permissive- /Zc:wchar_t /Zc:forScope /Zc:inline /Fo"DEBUG\\" /Fd"DEBUG\VC142.PDB" /Gd /TP /analyze- /FC C:\USERS\OMER\DOCUMENTS\MAGSHIMIM\C++\LESSON 6\סדנת דיבאגגינג\DEBUGWORKSHOP\MYPOINTEXACTLY\MAIN.CPP
^C:\USERS\OMER\DOCUMENTS\MAGSHIMIM\C++\LESSON 6\סדנת דיבאגגינג\DEBUGWORKSHOP\MYPOINTEXACTLY\POINT.CPP
/c /ZI /JMC /nologo /W3 /WX- /diagnostics:column /sdl /Od /Oy- /D _MBCS /Gm- /EHsc /RTC1 /MDd /GS /fp:precise /permissive- /Zc:wchar_t /Zc:forScope /Zc:inline /Fo"DEBUG\\" /Fd"DEBUG\VC142.PDB" /Gd /TP /analyze- /FC C:\USERS\OMER\DOCUMENTS\MAGSHIMIM\C++\LESSON 6\סדנת דיבאגגינג\DEBUGWORKSHOP\MYPOINTEXACTLY\POINT.CPP
