^C:\USERS\OMER\DOCUMENTS\MAGSHIMIM\C++\LESSON 6\סדנת דיבאגגינג\DEBUGWORKSHOP\PASSWORD\PASSWORD.CPP
C:\USERS\OMER\DOCUMENTS\MAGSHIMIM\C++\LESSON 6\סדנת דיבאגגינג\DEBUGWORKSHOP\PASSWORD\DEBUG\VC142.PDB
C:\USERS\OMER\DOCUMENTS\MAGSHIMIM\C++\LESSON 6\סדנת דיבאגגינג\DEBUGWORKSHOP\PASSWORD\DEBUG\VC142.IDB
C:\USERS\OMER\DOCUMENTS\MAGSHIMIM\C++\LESSON 6\סדנת דיבאגגינג\DEBUGWORKSHOP\PASSWORD\DEBUG\PASSWORD.OBJ
